%YAML 1.1
%TAG !u! tag:unity3d.com,2011:
--- !u!74 &7400000
AnimationClip:
  m_ObjectHideFlags: 0
  m_PrefabParentObject: {fileID: 0}
  m_PrefabInternal: {fileID: 0}
  m_Name: Cactus attacking
  serializedVersion: 6
  m_Legacy: 0
  m_Compressed: 0
  m_UseHighQualityCurve: 1
  m_RotationCurves: []
  m_CompressedRotationCurves: []
  m_EulerCurves: []
  m_PositionCurves: []
  m_ScaleCurves: []
  m_FloatCurves: []
  m_PPtrCurves:
  - curve:
    - time: 0
      value: {fileID: 21300000, guid: 14512d42ec5724dd5ae7252566124195, type: 3}
    - time: 0.033333335
      value: {fileID: 21300002, guid: 14512d42ec5724dd5ae7252566124195, type: 3}
    - time: 0.06666667
      value: {fileID: 21300004, guid: 14512d42ec5724dd5ae7252566124195, type: 3}
    - time: 0.1
      value: {fileID: 21300006, guid: 14512d42ec5724dd5ae7252566124195, type: 3}
    - time: 0.13333334
      value: {fileID: 21300008, guid: 14512d42ec5724dd5ae7252566124195, type: 3}
    - time: 0.16666667
      value: {fileID: 21300010, guid: 14512d42ec5724dd5ae7252566124195, type: 3}
    - time: 0.2
      value: {fileID: 21300012, guid: 14512d42ec5724dd5ae7252566124195, type: 3}
    - time: 0.23333333
      value: {fileID: 21300014, guid: 14512d42ec5724dd5ae7252566124195, type: 3}
    - time: 0.26666668
      value: {fileID: 21300016, guid: 14512d42ec5724dd5ae7252566124195, type: 3}
    - time: 0.3
      value: {fileID: 21300018, guid: 14512d42ec5724dd5ae7252566124195, type: 3}
    - time: 0.33333334
      value: {fileID: 21300020, guid: 14512d42ec5724dd5ae7252566124195, type: 3}
    - time: 0.36666667
      value: {fileID: 21300022, guid: 14512d42ec5724dd5ae7252566124195, type: 3}
    - time: 0.4
      value: {fileID: 21300024, guid: 14512d42ec5724dd5ae7252566124195, type: 3}
    - time: 0.43333334
      value: {fileID: 21300026, guid: 14512d42ec5724dd5ae7252566124195, type: 3}
    - time: 0.46666667
      value: {fileID: 21300028, guid: 14512d42ec5724dd5ae7252566124195, type: 3}
    - time: 0.5
      value: {fileID: 21300030, guid: 14512d42ec5724dd5ae7252566124195, type: 3}
    - time: 0.53333336
      value: {fileID: 21300032, guid: 14512d42ec5724dd5ae7252566124195, type: 3}
    - time: 0.56666666
      value: {fileID: 21300034, guid: 14512d42ec5724dd5ae7252566124195, type: 3}
    - time: 0.6
      value: {fileID: 21300036, guid: 14512d42ec5724dd5ae7252566124195, type: 3}
    - time: 0.6333333
      value: {fileID: 21300038, guid: 14512d42ec5724dd5ae7252566124195, type: 3}
    - time: 0.6666667
      value: {fileID: 21300040, guid: 14512d42ec5724dd5ae7252566124195, type: 3}
    - time: 0.7
      value: {fileID: 21300042, guid: 14512d42ec5724dd5ae7252566124195, type: 3}
    - time: 0.73333335
      value: {fileID: 21300044, guid: 14512d42ec5724dd5ae7252566124195, type: 3}
    - time: 0.76666665
      value: {fileID: 21300046, guid: 14512d42ec5724dd5ae7252566124195, type: 3}
    - time: 0.8
      value: {fileID: 21300048, guid: 14512d42ec5724dd5ae7252566124195, type: 3}
    - time: 0.8333333
      value: {fileID: 21300050, guid: 14512d42ec5724dd5ae7252566124195, type: 3}
    - time: 0.8666667
      value: {fileID: 21300052, guid: 14512d42ec5724dd5ae7252566124195, type: 3}
    - time: 0.9
      value: {fileID: 21300054, guid: 14512d42ec5724dd5ae7252566124195, type: 3}
    - time: 0.93333334
      value: {fileID: 21300056, guid: 14512d42ec5724dd5ae7252566124195, type: 3}
    - time: 0.96666664
      value: {fileID: 21300058, guid: 14512d42ec5724dd5ae7252566124195, type: 3}
    - time: 1
      value: {fileID: 21300060, guid: 14512d42ec5724dd5ae7252566124195, type: 3}
    - time: 1.0333333
      value: {fileID: 21300062, guid: 14512d42ec5724dd5ae7252566124195, type: 3}
    - time: 1.0666667
      value: {fileID: 21300064, guid: 14512d42ec5724dd5ae7252566124195, type: 3}
    - time: 1.1
      value: {fileID: 21300066, guid: 14512d42ec5724dd5ae7252566124195, type: 3}
    - time: 1.1333333
      value: {fileID: 21300068, guid: 14512d42ec5724dd5ae7252566124195, type: 3}
    - time: 1.1666666
      value: {fileID: 21300070, guid: 14512d42ec5724dd5ae7252566124195, type: 3}
    - time: 1.2
      value: {fileID: 21300072, guid: 14512d42ec5724dd5ae7252566124195, type: 3}
    - time: 1.2333333
      value: {fileID: 21300074, guid: 14512d42ec5724dd5ae7252566124195, type: 3}
    - time: 1.2666667
      value: {fileID: 21300076, guid: 14512d42ec5724dd5ae7252566124195, type: 3}
    - time: 1.3
      value: {fileID: 21300078, guid: 14512d42ec5724dd5ae7252566124195, type: 3}
    - time: 1.3333334
      value: {fileID: 21300080, guid: 14512d42ec5724dd5ae7252566124195, type: 3}
    - time: 1.3666667
      value: {fileID: 21300082, guid: 14512d42ec5724dd5ae7252566124195, type: 3}
    - time: 1.4
      value: {fileID: 21300084, guid: 14512d42ec5724dd5ae7252566124195, type: 3}
    - time: 1.4333333
      value: {fileID: 21300086, guid: 14512d42ec5724dd5ae7252566124195, type: 3}
    - time: 1.4666667
      value: {fileID: 21300088, guid: 14512d42ec5724dd5ae7252566124195, type: 3}
    - time: 1.5
      value: {fileID: 21300090, guid: 14512d42ec5724dd5ae7252566124195, type: 3}
    - time: 1.5333333
      value: {fileID: 21300092, guid: 14512d42ec5724dd5ae7252566124195, type: 3}
    - time: 1.5666667
      value: {fileID: 21300094, guid: 14512d42ec5724dd5ae7252566124195, type: 3}
    - time: 1.6
      value: {fileID: 21300096, guid: 14512d42ec5724dd5ae7252566124195, type: 3}
    - time: 1.6333333
      value: {fileID: 21300098, guid: 14512d42ec5724dd5ae7252566124195, type: 3}
    - time: 1.6666666
      value: {fileID: 21300100, guid: 14512d42ec5724dd5ae7252566124195, type: 3}
    - time: 1.7
      value: {fileID: 21300102, guid: 14512d42ec5724dd5ae7252566124195, type: 3}
    - time: 1.7333333
      value: {fileID: 21300104, guid: 14512d42ec5724dd5ae7252566124195, type: 3}
    - time: 1.7666667
      value: {fileID: 21300106, guid: 14512d42ec5724dd5ae7252566124195, type: 3}
    - time: 1.8
      value: {fileID: 21300108, guid: 14512d42ec5724dd5ae7252566124195, type: 3}
    - time: 1.8333334
      value: {fileID: 21300110, guid: 14512d42ec5724dd5ae7252566124195, type: 3}
    - time: 1.8666667
      value: {fileID: 21300112, guid: 14512d42ec5724dd5ae7252566124195, type: 3}
    - time: 1.9
      value: {fileID: 21300114, guid: 14512d42ec5724dd5ae7252566124195, type: 3}
    - time: 1.9333333
      value: {fileID: 21300116, guid: 14512d42ec5724dd5ae7252566124195, type: 3}
    - time: 1.9666667
      value: {fileID: 21300118, guid: 14512d42ec5724dd5ae7252566124195, type: 3}
    - time: 2
      value: {fileID: 21300120, guid: 14512d42ec5724dd5ae7252566124195, type: 3}
    - time: 2.0333333
      value: {fileID: 21300122, guid: 14512d42ec5724dd5ae7252566124195, type: 3}
    - time: 2.0666666
      value: {fileID: 21300124, guid: 14512d42ec5724dd5ae7252566124195, type: 3}
    - time: 2.1
      value: {fileID: 21300126, guid: 14512d42ec5724dd5ae7252566124195, type: 3}
    - time: 2.1333334
      value: {fileID: 21300128, guid: 14512d42ec5724dd5ae7252566124195, type: 3}
    - time: 2.1666667
      value: {fileID: 21300130, guid: 14512d42ec5724dd5ae7252566124195, type: 3}
    - time: 2.2
      value: {fileID: 21300132, guid: 14512d42ec5724dd5ae7252566124195, type: 3}
    - time: 2.2333333
      value: {fileID: 21300134, guid: 14512d42ec5724dd5ae7252566124195, type: 3}
    - time: 2.2666667
      value: {fileID: 21300136, guid: 14512d42ec5724dd5ae7252566124195, type: 3}
    - time: 2.3
      value: {fileID: 21300138, guid: 14512d42ec5724dd5ae7252566124195, type: 3}
    - time: 2.3333333
      value: {fileID: 21300140, guid: 14512d42ec5724dd5ae7252566124195, type: 3}
    - time: 2.3666666
      value: {fileID: 21300142, guid: 14512d42ec5724dd5ae7252566124195, type: 3}
    - time: 2.4
      value: {fileID: 21300144, guid: 14512d42ec5724dd5ae7252566124195, type: 3}
    - time: 2.4333334
      value: {fileID: 21300146, guid: 14512d42ec5724dd5ae7252566124195, type: 3}
    attribute: m_Sprite
    path: Body
    classID: 212
    script: {fileID: 0}
  m_SampleRate: 30
  m_WrapMode: 0
  m_Bounds:
    m_Center: {x: 0, y: 0, z: 0}
    m_Extent: {x: 0, y: 0, z: 0}
  m_ClipBindingConstant:
    genericBindings:
    - path: 2073732236
      attribute: 0
      script: {fileID: 0}
      classID: 212
      customType: 23
      isPPtrCurve: 1
    pptrCurveMapping:
    - {fileID: 21300000, guid: 14512d42ec5724dd5ae7252566124195, type: 3}
    - {fileID: 21300002, guid: 14512d42ec5724dd5ae7252566124195, type: 3}
    - {fileID: 21300004, guid: 14512d42ec5724dd5ae7252566124195, type: 3}
    - {fileID: 21300006, guid: 14512d42ec5724dd5ae7252566124195, type: 3}
    - {fileID: 21300008, guid: 14512d42ec5724dd5ae7252566124195, type: 3}
    - {fileID: 21300010, guid: 14512d42ec5724dd5ae7252566124195, type: 3}
    - {fileID: 21300012, guid: 14512d42ec5724dd5ae7252566124195, type: 3}
    - {fileID: 21300014, guid: 14512d42ec5724dd5ae7252566124195, type: 3}
    - {fileID: 21300016, guid: 14512d42ec5724dd5ae7252566124195, type: 3}
    - {fileID: 21300018, guid: 14512d42ec5724dd5ae7252566124195, type: 3}
    - {fileID: 21300020, guid: 14512d42ec5724dd5ae7252566124195, type: 3}
    - {fileID: 21300022, guid: 14512d42ec5724dd5ae7252566124195, type: 3}
    - {fileID: 21300024, guid: 14512d42ec5724dd5ae7252566124195, type: 3}
    - {fileID: 21300026, guid: 14512d42ec5724dd5ae7252566124195, type: 3}
    - {fileID: 21300028, guid: 14512d42ec5724dd5ae7252566124195, type: 3}
    - {fileID: 21300030, guid: 14512d42ec5724dd5ae7252566124195, type: 3}
    - {fileID: 21300032, guid: 14512d42ec5724dd5ae7252566124195, type: 3}
    - {fileID: 21300034, guid: 14512d42ec5724dd5ae7252566124195, type: 3}
    - {fileID: 21300036, guid: 14512d42ec5724dd5ae7252566124195, type: 3}
    - {fileID: 21300038, guid: 14512d42ec5724dd5ae7252566124195, type: 3}
    - {fileID: 21300040, guid: 14512d42ec5724dd5ae7252566124195, type: 3}
    - {fileID: 21300042, guid: 14512d42ec5724dd5ae7252566124195, type: 3}
    - {fileID: 21300044, guid: 14512d42ec5724dd5ae7252566124195, type: 3}
    - {fileID: 21300046, guid: 14512d42ec5724dd5ae7252566124195, type: 3}
    - {fileID: 21300048, guid: 14512d42ec5724dd5ae7252566124195, type: 3}
    - {fileID: 21300050, guid: 14512d42ec5724dd5ae7252566124195, type: 3}
    - {fileID: 21300052, guid: 14512d42ec5724dd5ae7252566124195, type: 3}
    - {fileID: 21300054, guid: 14512d42ec5724dd5ae7252566124195, type: 3}
    - {fileID: 21300056, guid: 14512d42ec5724dd5ae7252566124195, type: 3}
    - {fileID: 21300058, guid: 14512d42ec5724dd5ae7252566124195, type: 3}
    - {fileID: 21300060, guid: 14512d42ec5724dd5ae7252566124195, type: 3}
    - {fileID: 21300062, guid: 14512d42ec5724dd5ae7252566124195, type: 3}
    - {fileID: 21300064, guid: 14512d42ec5724dd5ae7252566124195, type: 3}
    - {fileID: 21300066, guid: 14512d42ec5724dd5ae7252566124195, type: 3}
    - {fileID: 21300068, guid: 14512d42ec5724dd5ae7252566124195, type: 3}
    - {fileID: 21300070, guid: 14512d42ec5724dd5ae7252566124195, type: 3}
    - {fileID: 21300072, guid: 14512d42ec5724dd5ae7252566124195, type: 3}
    - {fileID: 21300074, guid: 14512d42ec5724dd5ae7252566124195, type: 3}
    - {fileID: 21300076, guid: 14512d42ec5724dd5ae7252566124195, type: 3}
    - {fileID: 21300078, guid: 14512d42ec5724dd5ae7252566124195, type: 3}
    - {fileID: 21300080, guid: 14512d42ec5724dd5ae7252566124195, type: 3}
    - {fileID: 21300082, guid: 14512d42ec5724dd5ae7252566124195, type: 3}
    - {fileID: 21300084, guid: 14512d42ec5724dd5ae7252566124195, type: 3}
    - {fileID: 21300086, guid: 14512d42ec5724dd5ae7252566124195, type: 3}
    - {fileID: 21300088, guid: 14512d42ec5724dd5ae7252566124195, type: 3}
    - {fileID: 21300090, guid: 14512d42ec5724dd5ae7252566124195, type: 3}
    - {fileID: 21300092, guid: 14512d42ec5724dd5ae7252566124195, type: 3}
    - {fileID: 21300094, guid: 14512d42ec5724dd5ae7252566124195, type: 3}
    - {fileID: 21300096, guid: 14512d42ec5724dd5ae7252566124195, type: 3}
    - {fileID: 21300098, guid: 14512d42ec5724dd5ae7252566124195, type: 3}
    - {fileID: 21300100, guid: 14512d42ec5724dd5ae7252566124195, type: 3}
    - {fileID: 21300102, guid: 14512d42ec5724dd5ae7252566124195, type: 3}
    - {fileID: 21300104, guid: 14512d42ec5724dd5ae7252566124195, type: 3}
    - {fileID: 21300106, guid: 14512d42ec5724dd5ae7252566124195, type: 3}
    - {fileID: 21300108, guid: 14512d42ec5724dd5ae7252566124195, type: 3}
    - {fileID: 21300110, guid: 14512d42ec5724dd5ae7252566124195, type: 3}
    - {fileID: 21300112, guid: 14512d42ec5724dd5ae7252566124195, type: 3}
    - {fileID: 21300114, guid: 14512d42ec5724dd5ae7252566124195, type: 3}
    - {fileID: 21300116, guid: 14512d42ec5724dd5ae7252566124195, type: 3}
    - {fileID: 21300118, guid: 14512d42ec5724dd5ae7252566124195, type: 3}
    - {fileID: 21300120, guid: 14512d42ec5724dd5ae7252566124195, type: 3}
    - {fileID: 21300122, guid: 14512d42ec5724dd5ae7252566124195, type: 3}
    - {fileID: 21300124, guid: 14512d42ec5724dd5ae7252566124195, type: 3}
    - {fileID: 21300126, guid: 14512d42ec5724dd5ae7252566124195, type: 3}
    - {fileID: 21300128, guid: 14512d42ec5724dd5ae7252566124195, type: 3}
    - {fileID: 21300130, guid: 14512d42ec5724dd5ae7252566124195, type: 3}
    - {fileID: 21300132, guid: 14512d42ec5724dd5ae7252566124195, type: 3}
    - {fileID: 21300134, guid: 14512d42ec5724dd5ae7252566124195, type: 3}
    - {fileID: 21300136, guid: 14512d42ec5724dd5ae7252566124195, type: 3}
    - {fileID: 21300138, guid: 14512d42ec5724dd5ae7252566124195, type: 3}
    - {fileID: 21300140, guid: 14512d42ec5724dd5ae7252566124195, type: 3}
    - {fileID: 21300142, guid: 14512d42ec5724dd5ae7252566124195, type: 3}
    - {fileID: 21300144, guid: 14512d42ec5724dd5ae7252566124195, type: 3}
    - {fileID: 21300146, guid: 14512d42ec5724dd5ae7252566124195, type: 3}
  m_AnimationClipSettings:
    serializedVersion: 2
    m_AdditiveReferencePoseClip: {fileID: 0}
    m_AdditiveReferencePoseTime: 0
    m_StartTime: 0
    m_StopTime: 2.4666667
    m_OrientationOffsetY: 0
    m_Level: 0
    m_CycleOffset: 0
    m_HasAdditiveReferencePose: 0
    m_LoopTime: 1
    m_LoopBlend: 0
    m_LoopBlendOrientation: 0
    m_LoopBlendPositionY: 0
    m_LoopBlendPositionXZ: 0
    m_KeepOriginalOrientation: 0
    m_KeepOriginalPositionY: 1
    m_KeepOriginalPositionXZ: 0
    m_HeightFromFeet: 0
    m_Mirror: 0
  m_EditorCurves: []
  m_EulerEditorCurves: []
  m_HasGenericRootTransform: 0
  m_HasMotionFloatCurves: 0
  m_GenerateMotionCurves: 0
  m_IsEmpty: 0
  m_Events:
  - time: 0
    functionName: SetState
    data: 
    objectReferenceParameter: {fileID: 0}
    floatParameter: 0
    intParameter: 1
    messageOptions: 0
